hw4.utf8
…
## # A tibble: 3 x 5
## # Groups:   Chick [1]
##   weight  Time Chick Diet   Freq
##    <dbl> <dbl> <ord> <fct> <int>
## 1     42     0 1     1        12
## 2     51     2 1     1        12
## 3     59     4 1     1        12

In the complete data set introduce a new variable that measures the current weight difference compared to day 0. Name this variable weightgain and print the first 3 rows of the new data frame.

complete <- complete %>% mutate(weightgain = weight - weight[Time == 0])
complete

## # A tibble: 540 x 6
## # Groups:   Chick [45]
##    weight  Time Chick Diet   Freq weightgain
##     <dbl> <dbl> <ord> <fct> <int>      <dbl>
##  1     42     0 1     1        12          0
##  2     51     2 1     1        12          9
##  3     59     4 1     1        12         17
##  4     64     6 1     1        12         22
##  5     76     8 1     1        12         34
##  6     93    10 1     1        12         51
##  7    106    12 1     1        12         64
##  8    125    14 1     1        12         83
##  9    149    16 1     1        12        107
## 10    171    18 1     1        12        129
## #  with 530 more rows
…
